<svg version="1.1" viewBox="0 0 64 64" xmlns="http://www.w3.org/2000/svg">
 <path d="m32.1 29.6 27.7 15-27.7 15-27.7-15z" fill="#aacbaf"/>
 <path d="m32.7 29.3a0.852 0.462 0 0 0-1.2 4.39e-4l-27.7 15a0.852 0.462 0 0 0-8.14e-4 0.651l27.7 15a0.852 0.462 0 0 0 1.2 0l27.7-15a0.852 0.462 0 0 0 3e-6 -0.651zm-0.602 0.977 26.5 14.4-26.5 14.4-26.5-14.4z" color="#000000" fill="#56ad8d"/>
 <path d="m32.1 21.9 27.7 15-27.7 15-27.7-15z" fill="#aad3df" stroke-width="7.33"/>
 <path d="m32.7 21.6a0.852 0.462 0 0 0-1.2 0l-27.7 15a0.852 0.462 0 0 0 8.14e-4 0.651l27.7 15a0.852 0.462 0 0 0 1.2 4.4e-4l27.7-15a0.852 0.462 0 0 0 4e-6 -0.651zm-0.602 0.977 26.5 14.4-26.5 14.4-26.5-14.4z" color="#000000" fill="#009cad" stroke-width="8"/>
 <path d="m32.1 14.3 27.7 15-27.7 15-27.7-15z" fill="#f2efe9" stroke-width="7.33"/>
 <g stroke-width="2.11">
  <path d="m46.2 22 7.61 4.13 4.77 3.73-4.32 2.35-11.4-8.94z" fill="#e892a2"/>
  <path d="m46.2 21.7a0.251 0.251 0 0 0-0.0879 0.0157l-3.37 1.27a0.251 0.251 0 0 0-0.0655 0.432l11.4 8.94a0.251 0.251 0 0 0 0.274 0.0222l4.32-2.35a0.251 0.251 0 0 0 0.0341-0.417l-4.77-3.73a0.251 0.251 0 0 0-0.0341-0.0231l-7.61-4.13a0.251 0.251 0 0 0-0.12-0.0305zm-0.0174 0.526 7.5 4.09 4.43 3.48-3.86 2.09-10.9-8.56z" color="#000000" fill="#e1789f"/>
  <path d="m35.1 26.2 12.4 9.73-4.32 2.35-13-10.2z" fill="#fff"/>
  <path d="m35.1 26a0.251 0.251 0 0 0-0.0795 0.0157l-4.96 1.86a0.251 0.251 0 0 0-0.0655 0.432l13 10.2a0.251 0.251 0 0 0 0.275 0.0231l4.32-2.35a0.251 0.251 0 0 0 0.0352-0.417l-12.4-9.73a0.251 0.251 0 0 0-0.164-0.0526zm-0.0342 0.534 12 9.39-3.86 2.09-12.6-9.81z" color="#000000" fill="#cacac9"/>
 </g>
 <path d="m29.1 31.2 7.35 5.76-10.6 3.98-7.35-5.76z" fill="#d9d0c9" stroke-width="7.39"/>
 <g stroke-width="16.9">
  <path d="m29.4 31.1a0.334 0.188 8.71 0 0-0.466-0.0716l-10.6 3.98a0.334 0.188 8.71 0 0-0.0401 0.262l7.35 5.76a0.334 0.188 8.71 0 0 0.466 0.0716l10.6-3.98a0.334 0.188 8.71 0 0 0.0401-0.262zm-0.295 0.358 6.89 5.42-10.1 3.79-6.89-5.42z" color="#000000" fill="#c4b7ac"/>
  <path d="m40.1 18.6-32.7 12.3 6.29 3.42 32.7-12.3z" color="#000000" fill="#fcd6a4"/>
  <path d="m40.1 18.3-0.106 0.0405-33.2 12.5 6.89 3.73 33.3-12.5zm-0.0379 0.549 5.72 3.1-32.1 12.1-5.72-3.1z" color="#000000" fill="#eaab6e"/>
  <path d="m32.7 13.9a0.852 0.462 0 0 0-1.2 0l-27.7 15a0.852 0.462 0 0 0 0 0.651l27.7 15a0.852 0.462 0 0 0 1.2 0l27.7-15a0.852 0.462 0 0 0 0-0.651zm-0.602 0.977 26.5 14.4-26.5 14.4-26.5-14.4z" color="#000000" fill="#b59b8e"/>
 </g>
 <path d="m28.2 15.4c0 5.49-9.09 17.2-9.96 17.2-0.886 0-9.96-11.7-9.96-17.2s4.47-9.96 9.96-9.96c5.49 0 9.96 4.47 9.96 9.96z" fill="#315562"/>
 <circle cx="18.3" cy="15.3" r="6.67" fill="#00c074"/>
</svg>
